[
  {
    "line": 2,
    "elements": [
      {
        "start_timestamp": "2022-07-30T08:23:16.334Z",
        "before": [
          {
            "result": {
              "duration": 3507500,
              "status": "passed"
            },
            "match": {
              "location": "stepDefinition.ReqRes_API_Definitions.before(io.cucumber.java.Scenario)"
            }
          },
          {
            "result": {
              "status": "passed"
            },
            "match": {
              "location": "stepDefinition.ReqRes_API_Definitions2.before(io.cucumber.java.Scenario)"
            }
          }
        ],
        "line": 4,
        "name": "Save User Details",
        "description": "",
        "id": "reqres-api;save-user-details",
        "type": "scenario",
        "keyword": "Scenario",
        "steps": [
          {
            "output": [
              "Response Received \u003d\u003d {\n    \"name\": \"morpheus\",\n    \"job\": \"leader\",\n    \"id\": \"879\",\n    \"createdAt\": \"2022-07-30T08:23:17.538Z\"\n}"
            ],
            "result": {
              "duration": 1250137500,
              "status": "passed"
            },
            "line": 5,
            "name": "I send a request to the URL to save valid user details",
            "match": {
              "location": "stepDefinition.ReqRes_API_Definitions.sendPostRequest()"
            },
            "keyword": "Given "
          },
          {
            "result": {
              "status": "passed"
            },
            "line": 6,
            "name": "the response will return user status 201",
            "match": {
              "arguments": [
                {
                  "val": "201",
                  "offset": 37
                }
              ],
              "location": "stepDefinition.ReqRes_API_Definitions.verifyPostStatus(int)"
            },
            "keyword": "Then "
          }
        ],
        "tags": [
          {
            "name": "@Functional"
          }
        ]
      },
      {
        "start_timestamp": "2022-07-30T08:23:17.644Z",
        "before": [
          {
            "result": {
              "status": "passed"
            },
            "match": {
              "location": "stepDefinition.ReqRes_API_Definitions.before(io.cucumber.java.Scenario)"
            }
          },
          {
            "result": {
              "status": "passed"
            },
            "match": {
              "location": "stepDefinition.ReqRes_API_Definitions2.before(io.cucumber.java.Scenario)"
            }
          }
        ],
        "line": 8,
        "name": "Update User Details",
        "description": "",
        "id": "reqres-api;update-user-details",
        "type": "scenario",
        "keyword": "Scenario",
        "steps": [
          {
            "output": [
              "Response Received \u003d\u003d {\n    \"name\": \"Morpheus\",\n    \"job\": \"UK Leader\",\n    \"updatedAt\": \"2022-07-30T08:23:17.728Z\"\n}"
            ],
            "result": {
              "duration": 114906600,
              "status": "passed"
            },
            "line": 9,
            "name": "I send a request to the URL to update user details",
            "match": {
              "location": "stepDefinition.ReqRes_API_Definitions.sendPutRequest()"
            },
            "keyword": "Given "
          },
          {
            "result": {
              "duration": 2703300,
              "status": "passed"
            },
            "line": 10,
            "name": "the response will return update user status 200",
            "match": {
              "arguments": [
                {
                  "val": "200",
                  "offset": 44
                }
              ],
              "location": "stepDefinition.ReqRes_API_Definitions.verifyPutStatus(int)"
            },
            "keyword": "Then "
          }
        ],
        "tags": [
          {
            "name": "@Functional"
          }
        ]
      },
      {
        "start_timestamp": "2022-07-30T08:23:17.764Z",
        "before": [
          {
            "result": {
              "status": "passed"
            },
            "match": {
              "location": "stepDefinition.ReqRes_API_Definitions.before(io.cucumber.java.Scenario)"
            }
          },
          {
            "result": {
              "status": "passed"
            },
            "match": {
              "location": "stepDefinition.ReqRes_API_Definitions2.before(io.cucumber.java.Scenario)"
            }
          }
        ],
        "line": 12,
        "name": "Retrive User Details List",
        "description": "",
        "id": "reqres-api;retrive-user-details-list",
        "type": "scenario",
        "keyword": "Scenario",
        "steps": [
          {
            "output": [
              "Response Received \u003d\u003d {\n    \"page\": 1,\n    \"per_page\": 6,\n    \"total\": 12,\n    \"total_pages\": 2,\n    \"data\": [\n        {\n            \"id\": 1,\n            \"email\": \"george.bluth@reqres.in\",\n            \"first_name\": \"George\",\n            \"last_name\": \"Bluth\",\n            \"avatar\": \"https://reqres.in/img/faces/1-image.jpg\"\n        },\n        {\n            \"id\": 2,\n            \"email\": \"janet.weaver@reqres.in\",\n            \"first_name\": \"Janet\",\n            \"last_name\": \"Weaver\",\n            \"avatar\": \"https://reqres.in/img/faces/2-image.jpg\"\n        },\n        {\n            \"id\": 3,\n            \"email\": \"emma.wong@reqres.in\",\n            \"first_name\": \"Emma\",\n            \"last_name\": \"Wong\",\n            \"avatar\": \"https://reqres.in/img/faces/3-image.jpg\"\n        },\n        {\n            \"id\": 4,\n            \"email\": \"eve.holt@reqres.in\",\n            \"first_name\": \"Eve\",\n            \"last_name\": \"Holt\",\n            \"avatar\": \"https://reqres.in/img/faces/4-image.jpg\"\n        },\n        {\n            \"id\": 5,\n            \"email\": \"charles.morris@reqres.in\",\n            \"first_name\": \"Charles\",\n            \"last_name\": \"Morris\",\n            \"avatar\": \"https://reqres.in/img/faces/5-image.jpg\"\n        },\n        {\n            \"id\": 6,\n            \"email\": \"tracey.ramos@reqres.in\",\n            \"first_name\": \"Tracey\",\n            \"last_name\": \"Ramos\",\n            \"avatar\": \"https://reqres.in/img/faces/6-image.jpg\"\n        }\n    ],\n    \"support\": {\n        \"url\": \"https://reqres.in/#support-heading\",\n        \"text\": \"To keep ReqRes free, contributions towards server costs are appreciated!\"\n    }\n}"
            ],
            "result": {
              "duration": 116418400,
              "status": "passed"
            },
            "line": 13,
            "name": "I send a request to the URL to get users list details with page \"1\"",
            "match": {
              "arguments": [
                {
                  "val": "\"1\"",
                  "offset": 64
                }
              ],
              "location": "stepDefinition.ReqRes_API_Definitions.sendListUsersRequest(java.lang.String)"
            },
            "keyword": "Given "
          },
          {
            "result": {
              "duration": 379015100,
              "status": "passed"
            },
            "line": 14,
            "name": "the response will return update user status 200 with 6 records",
            "match": {
              "arguments": [
                {
                  "val": "200",
                  "offset": 44
                },
                {
                  "val": "6",
                  "offset": 53
                }
              ],
              "location": "stepDefinition.ReqRes_API_Definitions.verifyListUsersStatus(int,int)"
            },
            "keyword": "Then "
          }
        ],
        "tags": [
          {
            "name": "@Functional"
          }
        ]
      },
      {
        "start_timestamp": "2022-07-30T08:23:18.265Z",
        "before": [
          {
            "result": {
              "status": "passed"
            },
            "match": {
              "location": "stepDefinition.ReqRes_API_Definitions.before(io.cucumber.java.Scenario)"
            }
          },
          {
            "result": {
              "status": "passed"
            },
            "match": {
              "location": "stepDefinition.ReqRes_API_Definitions2.before(io.cucumber.java.Scenario)"
            }
          }
        ],
        "line": 22,
        "name": "Retrive Single User Details",
        "description": "",
        "id": "reqres-api;retrive-single-user-details;;2",
        "type": "scenario",
        "keyword": "Scenario Outline",
        "steps": [
          {
            "output": [
              "Response Received \u003d\u003d {\n    \"data\": {\n        \"id\": 2,\n        \"email\": \"janet.weaver@reqres.in\",\n        \"first_name\": \"Janet\",\n        \"last_name\": \"Weaver\",\n        \"avatar\": \"https://reqres.in/img/faces/2-image.jpg\"\n    },\n    \"support\": {\n        \"url\": \"https://reqres.in/#support-heading\",\n        \"text\": \"To keep ReqRes free, contributions towards server costs are appreciated!\"\n    }\n}"
            ],
            "result": {
              "duration": 79021200,
              "status": "passed"
            },
            "line": 17,
            "name": "I send a request to the URL to get valid user details 2",
            "match": {
              "arguments": [
                {
                  "val": "2",
                  "offset": 54
                }
              ],
              "location": "stepDefinition.ReqRes_API_Definitions.sendRequest(int)"
            },
            "keyword": "Given "
          },
          {
            "result": {
              "duration": 40039400,
              "status": "passed"
            },
            "line": 18,
            "name": "the response will return user status 200 and id 2 and email \"janet.weaver@reqres.in\" and firstName \"Janet\" and lastName \"Weaver\"",
            "match": {
              "arguments": [
                {
                  "val": "200",
                  "offset": 37
                },
                {
                  "val": "2",
                  "offset": 48
                },
                {
                  "val": "\"janet.weaver@reqres.in\"",
                  "offset": 60
                },
                {
                  "val": "\"Janet\"",
                  "offset": 99
                },
                {
                  "val": "\"Weaver\"",
                  "offset": 120
                }
              ],
              "location": "stepDefinition.ReqRes_API_Definitions.verifyStatus(int,int,java.lang.String,java.lang.String,java.lang.String)"
            },
            "keyword": "Then "
          }
        ],
        "tags": [
          {
            "name": "@Functional"
          }
        ]
      },
      {
        "start_timestamp": "2022-07-30T08:23:18.394Z",
        "before": [
          {
            "result": {
              "status": "passed"
            },
            "match": {
              "location": "stepDefinition.ReqRes_API_Definitions.before(io.cucumber.java.Scenario)"
            }
          },
          {
            "result": {
              "status": "passed"
            },
            "match": {
              "location": "stepDefinition.ReqRes_API_Definitions2.before(io.cucumber.java.Scenario)"
            }
          }
        ],
        "line": 23,
        "name": "Retrive Single User Details",
        "description": "",
        "id": "reqres-api;retrive-single-user-details;;3",
        "type": "scenario",
        "keyword": "Scenario Outline",
        "steps": [
          {
            "output": [
              "Response Received \u003d\u003d {\n    \"data\": {\n        \"id\": 11,\n        \"email\": \"george.edwards@reqres.in\",\n        \"first_name\": \"George\",\n        \"last_name\": \"Edwards\",\n        \"avatar\": \"https://reqres.in/img/faces/11-image.jpg\"\n    },\n    \"support\": {\n        \"url\": \"https://reqres.in/#support-heading\",\n        \"text\": \"To keep ReqRes free, contributions towards server costs are appreciated!\"\n    }\n}"
            ],
            "result": {
              "duration": 100069600,
              "status": "passed"
            },
            "line": 17,
            "name": "I send a request to the URL to get valid user details 11",
            "match": {
              "arguments": [
                {
                  "val": "11",
                  "offset": 54
                }
              ],
              "location": "stepDefinition.ReqRes_API_Definitions.sendRequest(int)"
            },
            "keyword": "Given "
          },
          {
            "result": {
              "duration": 41027600,
              "status": "passed"
            },
            "line": 18,
            "name": "the response will return user status 200 and id 11 and email \"george.edwards@reqres.in\" and firstName \"George\" and lastName \"Edwards\"",
            "match": {
              "arguments": [
                {
                  "val": "200",
                  "offset": 37
                },
                {
                  "val": "11",
                  "offset": 48
                },
                {
                  "val": "\"george.edwards@reqres.in\"",
                  "offset": 61
                },
                {
                  "val": "\"George\"",
                  "offset": 102
                },
                {
                  "val": "\"Edwards\"",
                  "offset": 124
                }
              ],
              "location": "stepDefinition.ReqRes_API_Definitions.verifyStatus(int,int,java.lang.String,java.lang.String,java.lang.String)"
            },
            "keyword": "Then "
          }
        ],
        "tags": [
          {
            "name": "@Functional"
          }
        ]
      },
      {
        "start_timestamp": "2022-07-30T08:23:18.535Z",
        "before": [
          {
            "result": {
              "status": "passed"
            },
            "match": {
              "location": "stepDefinition.ReqRes_API_Definitions.before(io.cucumber.java.Scenario)"
            }
          },
          {
            "result": {
              "status": "passed"
            },
            "match": {
              "location": "stepDefinition.ReqRes_API_Definitions2.before(io.cucumber.java.Scenario)"
            }
          }
        ],
        "line": 24,
        "name": "Retrive Single User Details",
        "description": "",
        "id": "reqres-api;retrive-single-user-details;;4",
        "type": "scenario",
        "keyword": "Scenario Outline",
        "steps": [
          {
            "output": [
              "Response Received \u003d\u003d {\n    \"data\": {\n        \"id\": 12,\n        \"email\": \"rachel.howell@reqres.in\",\n        \"first_name\": \"Rachel\",\n        \"last_name\": \"Howell\",\n        \"avatar\": \"https://reqres.in/img/faces/12-image.jpg\"\n    },\n    \"support\": {\n        \"url\": \"https://reqres.in/#support-heading\",\n        \"text\": \"To keep ReqRes free, contributions towards server costs are appreciated!\"\n    }\n}"
            ],
            "result": {
              "duration": 63132200,
              "status": "passed"
            },
            "line": 17,
            "name": "I send a request to the URL to get valid user details 12",
            "match": {
              "arguments": [
                {
                  "val": "12",
                  "offset": 54
                }
              ],
              "location": "stepDefinition.ReqRes_API_Definitions.sendRequest(int)"
            },
            "keyword": "Given "
          },
          {
            "result": {
              "duration": 47110400,
              "status": "passed"
            },
            "line": 18,
            "name": "the response will return user status 200 and id 12 and email \"rachel.howell@reqres.in\" and firstName \"Rachel\" and lastName \"Howell\"",
            "match": {
              "arguments": [
                {
                  "val": "200",
                  "offset": 37
                },
                {
                  "val": "12",
                  "offset": 48
                },
                {
                  "val": "\"rachel.howell@reqres.in\"",
                  "offset": 61
                },
                {
                  "val": "\"Rachel\"",
                  "offset": 101
                },
                {
                  "val": "\"Howell\"",
                  "offset": 123
                }
              ],
              "location": "stepDefinition.ReqRes_API_Definitions.verifyStatus(int,int,java.lang.String,java.lang.String,java.lang.String)"
            },
            "keyword": "Then "
          }
        ],
        "tags": [
          {
            "name": "@Functional"
          }
        ]
      },
      {
        "start_timestamp": "2022-07-30T08:23:18.653Z",
        "before": [
          {
            "result": {
              "status": "passed"
            },
            "match": {
              "location": "stepDefinition.ReqRes_API_Definitions.before(io.cucumber.java.Scenario)"
            }
          },
          {
            "result": {
              "status": "passed"
            },
            "match": {
              "location": "stepDefinition.ReqRes_API_Definitions2.before(io.cucumber.java.Scenario)"
            }
          }
        ],
        "line": 26,
        "name": "Retrive User Not Found Details",
        "description": "",
        "id": "reqres-api;retrive-user-not-found-details",
        "type": "scenario",
        "keyword": "Scenario",
        "steps": [
          {
            "output": [
              "Response Received \u003d\u003d {\n    \n}"
            ],
            "result": {
              "duration": 85501100,
              "status": "passed"
            },
            "line": 27,
            "name": "I send a request to the URL to get user not found response",
            "match": {
              "location": "stepDefinition.ReqRes_API_Definitions.sendDataNotFoundRequest()"
            },
            "keyword": "Given "
          },
          {
            "result": {
              "status": "passed"
            },
            "line": 28,
            "name": "the response will return user not found status 404",
            "match": {
              "arguments": [
                {
                  "val": "404",
                  "offset": 47
                }
              ],
              "location": "stepDefinition.ReqRes_API_Definitions.verifyNotFoundStatus(int)"
            },
            "keyword": "Then "
          }
        ],
        "tags": [
          {
            "name": "@Functional"
          }
        ]
      },
      {
        "start_timestamp": "2022-07-30T08:23:18.740Z",
        "before": [
          {
            "result": {
              "status": "passed"
            },
            "match": {
              "location": "stepDefinition.ReqRes_API_Definitions.before(io.cucumber.java.Scenario)"
            }
          },
          {
            "result": {
              "status": "passed"
            },
            "match": {
              "location": "stepDefinition.ReqRes_API_Definitions2.before(io.cucumber.java.Scenario)"
            }
          }
        ],
        "line": 30,
        "name": "Delete User Details",
        "description": "",
        "id": "reqres-api;delete-user-details",
        "type": "scenario",
        "keyword": "Scenario",
        "steps": [
          {
            "output": [
              "Response Received \u003d\u003d "
            ],
            "result": {
              "duration": 105160000,
              "status": "passed"
            },
            "line": 31,
            "name": "I send a request to the URL to delete user details 5",
            "match": {
              "arguments": [
                {
                  "val": "5",
                  "offset": 51
                }
              ],
              "location": "stepDefinition.ReqRes_API_Definitions.sendDeleteRequest(int)"
            },
            "keyword": "Given "
          },
          {
            "result": {
              "status": "passed"
            },
            "line": 32,
            "name": "the response will return delete user status 204",
            "match": {
              "arguments": [
                {
                  "val": "204",
                  "offset": 44
                }
              ],
              "location": "stepDefinition.ReqRes_API_Definitions.verifyDeleteStatus(int)"
            },
            "keyword": "Then "
          }
        ],
        "tags": [
          {
            "name": "@Functional"
          }
        ]
      }
    ],
    "name": "ReqRes Api",
    "description": "",
    "id": "reqres-api",
    "keyword": "Feature",
    "uri": "file:src/test/java/featureFiles/ReqResAPI.feature",
    "tags": [
      {
        "name": "@Functional",
        "type": "Tag",
        "location": {
          "line": 1,
          "column": 1
        }
      }
    ]
  }
]